0.299885 (1,(((((10,(35,4)),(((((11,18),((((((13,16),9),36),33),((((((((20,23),25),(26,27)),28),24),(21,22)),29),5)),17)),6),7),((((12,(15,30)),32),19),3))),(34,8)),2),14),31)
0.0954757 (1,(((((10,(35,4)),(((((11,18),((((((13,16),9),36),((((((((20,23),25),(26,27)),28),24),(21,22)),29),5)),33),17)),6),7),((((12,(15,30)),32),19),3))),(34,8)),2),14),31)
0.0887549 (1,(((((10,(35,4)),(((((11,18),(((((13,16),(36,9)),33),((((((((20,23),25),(26,27)),28),24),(21,22)),29),5)),17)),6),7),((((12,(15,30)),32),19),3))),(34,8)),2),14),31)
0.0594624 (1,((((((10,35),4),(((((11,18),((((((13,16),9),36),33),((((((((20,23),25),(26,27)),28),24),(21,22)),29),5)),17)),6),7),((((12,(15,30)),32),19),3))),(34,8)),2),14),31)
0.0495877 (1,(((((10,(35,4)),(((((11,18),((((((13,16),9),36),33),((((((((20,23),25),(26,27)),28),24),(21,22)),29),5)),17)),6),((((12,(15,30)),32),19),3)),7)),(34,8)),2),14),31)
0.0326607 (1,(((((10,(35,4)),(((((11,18),((((((13,16),9),36),((((((((20,23),25),(26,27)),28),24),(21,22)),29),5)),33),17)),6),((((12,(15,30)),32),19),3)),7)),(34,8)),2),14),31)
0.0268963 (1,(((((10,(35,4)),((((11,18),((((((13,16),9),36),33),((((((((20,23),25),(26,27)),28),24),(21,22)),29),5)),17)),(6,7)),((((12,(15,30)),32),19),3))),(34,8)),2),14),31)
0.0267379 (1,(((((10,(35,4)),(((((11,18),(((((13,16),(36,9)),((((((((20,23),25),(26,27)),28),24),(21,22)),29),5)),33),17)),6),7),((((12,(15,30)),32),19),3))),(34,8)),2),14),31)
0.021504 (1,((((((10,35),4),(((((11,18),((((((13,16),9),36),((((((((20,23),25),(26,27)),28),24),(21,22)),29),5)),33),17)),6),7),((((12,(15,30)),32),19),3))),(34,8)),2),14),31)
0.0174092 (1,(((((10,(35,4)),(((((11,18),((((((13,16),9),33),36),((((((((20,23),25),(26,27)),28),24),(21,22)),29),5)),17)),6),7),((((12,(15,30)),32),19),3))),(34,8)),2),14),31)
0.016082 (1,((((10,(35,4)),((((((11,18),((((((13,16),9),36),33),((((((((20,23),25),(26,27)),28),24),(21,22)),29),5)),17)),6),7),((((12,(15,30)),32),19),3)),(34,8))),2),14),31)
0.0154127 (1,((((((10,35),4),(((((11,18),(((((13,16),(36,9)),33),((((((((20,23),25),(26,27)),28),24),(21,22)),29),5)),17)),6),7),((((12,(15,30)),32),19),3))),(34,8)),2),14),31)
0.0143565 (1,(((((10,(35,4)),(((((11,18),(((((13,16),(36,9)),33),((((((((20,23),25),(26,27)),28),24),(21,22)),29),5)),17)),6),((((12,(15,30)),32),19),3)),7)),(34,8)),2),14),31)
0.0138448 (1,(((((10,(35,4)),(((((11,18),((((((13,16),36),9),33),((((((((20,23),25),(26,27)),28),24),(21,22)),29),5)),17)),6),7),((((12,(15,30)),32),19),3))),(34,8)),2),14),31)
0.0130004 (1,((((((10,35),4),(((((11,18),((((((13,16),9),36),33),((((((((20,23),25),(26,27)),28),24),(21,22)),29),5)),17)),6),((((12,(15,30)),32),19),3)),7)),(34,8)),2),14),31)
0.0124756 (1,(((((10,(35,4)),((((11,18),((((((13,16),9),36),((((((((20,23),25),(26,27)),28),24),(21,22)),29),5)),33),17)),(6,7)),((((12,(15,30)),32),19),3))),(34,8)),2),14),31)
0.0103013 (1,((((((10,(35,4)),7),((((11,18),((((((13,16),9),36),33),((((((((20,23),25),(26,27)),28),24),(21,22)),29),5)),17)),6),((((12,(15,30)),32),19),3))),(34,8)),2),14),31)
0.0102911 (1,(((((10,(35,4)),(((((11,18),(((((13,16),(36,9)),((((((((20,23),25),(26,27)),28),24),(21,22)),29),5)),33),17)),6),((((12,(15,30)),32),19),3)),7)),(34,8)),2),14),31)
0.00937827 (1,((((((10,35),4),(((((11,18),((((((13,16),9),36),((((((((20,23),25),(26,27)),28),24),(21,22)),29),5)),33),17)),6),((((12,(15,30)),32),19),3)),7)),(34,8)),2),14),31)
0.00839733 (1,((((((10,(35,4)),7),((((11,18),((((((13,16),9),36),((((((((20,23),25),(26,27)),28),24),(21,22)),29),5)),33),17)),6),((((12,(15,30)),32),19),3))),(34,8)),2),14),31)
0.00798946 (1,((((((10,35),4),((((11,18),((((((13,16),9),36),33),((((((((20,23),25),(26,27)),28),24),(21,22)),29),5)),17)),(6,7)),((((12,(15,30)),32),19),3))),(34,8)),2),14),31)
0.00642893 (1,((((10,(35,4)),((((((11,18),((((((13,16),9),36),((((((((20,23),25),(26,27)),28),24),(21,22)),29),5)),33),17)),6),7),((((12,(15,30)),32),19),3)),(34,8))),2),14),31)
0.0060812 (1,(((((10,(35,4)),(((((11,18),(((((13,16),9),36),((((((((20,23),25),(26,27)),28),24),(21,22)),29),5)),(17,33))),6),7),((((12,(15,30)),32),19),3))),(34,8)),2),14),31)
0.00596107 (1,((((((10,35),4),(((((11,18),(((((13,16),(36,9)),((((((((20,23),25),(26,27)),28),24),(21,22)),29),5)),33),17)),6),7),((((12,(15,30)),32),19),3))),(34,8)),2),14),31)
0.0057052 (1,(((((10,(35,4)),((((11,18),(((((13,16),(36,9)),33),((((((((20,23),25),(26,27)),28),24),(21,22)),29),5)),17)),(6,7)),((((12,(15,30)),32),19),3))),(34,8)),2),14),31)
0.00418773 (1,((((((10,35),4),((((11,18),((((((13,16),9),36),((((((((20,23),25),(26,27)),28),24),(21,22)),29),5)),33),17)),(6,7)),((((12,(15,30)),32),19),3))),(34,8)),2),14),31)
0.00414653 (1,(((((10,(35,4)),(((((11,18),(((((13,16),9),36),((((((((20,23),25),(26,27)),28),24),(21,22)),29),5)),(17,33))),6),((((12,(15,30)),32),19),3)),7)),(34,8)),2),14),31)
0.00407053 (1,((((10,(35,4)),((((((11,18),(((((13,16),(36,9)),33),((((((((20,23),25),(26,27)),28),24),(21,22)),29),5)),17)),6),7),((((12,(15,30)),32),19),3)),(34,8))),2),14),31)
0.003974 (1,(((((10,35),4),((((((11,18),((((((13,16),9),36),33),((((((((20,23),25),(26,27)),28),24),(21,22)),29),5)),17)),6),7),((((12,(15,30)),32),19),3)),(34,8))),2),14),31)
0.0036052 (1,((((((10,35),4),(((((11,18),((((((13,16),9),33),36),((((((((20,23),25),(26,27)),28),24),(21,22)),29),5)),17)),6),7),((((12,(15,30)),32),19),3))),(34,8)),2),14),31)
0.00336787 (1,((((10,(35,4)),(((((11,18),((((((13,16),9),36),33),((((((((20,23),25),(26,27)),28),24),(21,22)),29),5)),17)),(6,7)),((((12,(15,30)),32),19),3)),(34,8))),2),14),31)
0.00328 (1,((((((10,35),4),(((((11,18),(((((13,16),(36,9)),33),((((((((20,23),25),(26,27)),28),24),(21,22)),29),5)),17)),6),((((12,(15,30)),32),19),3)),7)),(34,8)),2),14),31)
0.00284453 (1,((((((10,(35,4)),7),((((11,18),(((((13,16),(36,9)),33),((((((((20,23),25),(26,27)),28),24),(21,22)),29),5)),17)),6),((((12,(15,30)),32),19),3))),(34,8)),2),14),31)
0.00283147 (1,((((((10,35),4),(((((11,18),(((((13,16),(36,9)),((((((((20,23),25),(26,27)),28),24),(21,22)),29),5)),33),17)),6),((((12,(15,30)),32),19),3)),7)),(34,8)),2),14),31)
0.00267013 (1,((((((10,(35,4)),7),((((11,18),(((((13,16),(36,9)),((((((((20,23),25),(26,27)),28),24),(21,22)),29),5)),33),17)),6),((((12,(15,30)),32),19),3))),(34,8)),2),14),31)
0.00262827 (1,((((10,(35,4)),((((((11,18),((((((13,16),9),36),33),((((((((20,23),25),(26,27)),28),24),(21,22)),29),5)),17)),6),((((12,(15,30)),32),19),3)),7),(34,8))),2),14),31)
0.00254333 (1,(((((10,(35,4)),(((((11,18),((((((13,16),36),9),33),((((((((20,23),25),(26,27)),28),24),(21,22)),29),5)),17)),6),((((12,(15,30)),32),19),3)),7)),(34,8)),2),14),31)
0.0025292 (1,(((((((10,35),4),7),((((11,18),((((((13,16),9),36),33),((((((((20,23),25),(26,27)),28),24),(21,22)),29),5)),17)),6),((((12,(15,30)),32),19),3))),(34,8)),2),14),31)
0.002456 (1,((((((10,35),4),(((((11,18),((((((13,16),36),9),33),((((((((20,23),25),(26,27)),28),24),(21,22)),29),5)),17)),6),7),((((12,(15,30)),32),19),3))),(34,8)),2),14),31)
0.00243933 (1,(((((10,(35,4)),((((11,18),(((((13,16),(36,9)),((((((((20,23),25),(26,27)),28),24),(21,22)),29),5)),33),17)),(6,7)),((((12,(15,30)),32),19),3))),(34,8)),2),14),31)
0.00224547 (1,(((((((10,35),4),7),((((11,18),((((((13,16),9),36),((((((((20,23),25),(26,27)),28),24),(21,22)),29),5)),33),17)),6),((((12,(15,30)),32),19),3))),(34,8)),2),14),31)
0.00211507 (1,((((10,(35,4)),((((((11,18),((((((13,16),9),36),((((((((20,23),25),(26,27)),28),24),(21,22)),29),5)),33),17)),6),((((12,(15,30)),32),19),3)),7),(34,8))),2),14),31)
0.00199227 (1,((((10,(35,4)),(((((11,18),((((((13,16),9),36),((((((((20,23),25),(26,27)),28),24),(21,22)),29),5)),33),17)),(6,7)),((((12,(15,30)),32),19),3)),(34,8))),2),14),31)
0.00198093 (1,(((((10,(35,4)),(((((11,18),((((((13,16),9),33),36),((((((((20,23),25),(26,27)),28),24),(21,22)),29),5)),17)),6),((((12,(15,30)),32),19),3)),7)),(34,8)),2),14),31)
0.00171973 (1,(((((10,35),4),((((((11,18),((((((13,16),9),36),((((((((20,23),25),(26,27)),28),24),(21,22)),29),5)),33),17)),6),7),((((12,(15,30)),32),19),3)),(34,8))),2),14),31)
0.0016428 (1,((((10,(35,4)),((((((11,18),(((((13,16),(36,9)),((((((((20,23),25),(26,27)),28),24),(21,22)),29),5)),33),17)),6),7),((((12,(15,30)),32),19),3)),(34,8))),2),14),31)
0.0014668 (1,((((((10,35),4),((((11,18),(((((13,16),(36,9)),33),((((((((20,23),25),(26,27)),28),24),(21,22)),29),5)),17)),(6,7)),((((12,(15,30)),32),19),3))),(34,8)),2),14),31)
0.00145347 (1,(((((10,(35,4)),(34,8)),(((((11,18),((((((13,16),9),36),33),((((((((20,23),25),(26,27)),28),24),(21,22)),29),5)),17)),6),7),((((12,(15,30)),32),19),3))),2),14),31)
0.00142373 (1,(((((10,(35,4)),((((11,18),((((((13,16),9),33),36),((((((((20,23),25),(26,27)),28),24),(21,22)),29),5)),17)),(6,7)),((((12,(15,30)),32),19),3))),(34,8)),2),14),31)
0.00134987 (1,(((((10,(35,4)),(((((11,18),((((((13,16),9),36),33),((((((((20,23),25),(26,27)),28),24),(21,22)),29),5)),17)),6),7),((((12,(15,30)),32),19),3))),(34,8)),14),2),31)
0.0012816 (1,(((((10,(35,4)),((((11,18),(((((13,16),9),36),((((((((20,23),25),(26,27)),28),24),(21,22)),29),5)),(17,33))),(6,7)),((((12,(15,30)),32),19),3))),(34,8)),2),14),31)
0.00117907 (1,((((((10,35),4),(((((11,18),(((((13,16),9),36),((((((((20,23),25),(26,27)),28),24),(21,22)),29),5)),(17,33))),6),7),((((12,(15,30)),32),19),3))),(34,8)),2),14),31)
0.0011752 (1,(((((10,35),4),(((((11,18),((((((13,16),9),36),33),((((((((20,23),25),(26,27)),28),24),(21,22)),29),5)),17)),(6,7)),((((12,(15,30)),32),19),3)),(34,8))),2),14),31)
0.0011336 (1,(((((10,(35,4)),(((((11,18),((((((13,16),9),36),33),17),((((((((20,23),25),(26,27)),28),24),(21,22)),29),5))),6),7),((((12,(15,30)),32),19),3))),(34,8)),2),14),31)
0.0011312 (1,((((((10,(35,4)),((((11,18),((((((13,16),9),36),33),((((((((20,23),25),(26,27)),28),24),(21,22)),29),5)),17)),6),((((12,(15,30)),32),19),3))),7),(34,8)),2),14),31)
0.00112973 (1,(((((10,(35,4)),(((((11,18),(((((13,16),9),36),(17,33)),((((((((20,23),25),(26,27)),28),24),(21,22)),29),5))),6),7),((((12,(15,30)),32),19),3))),(34,8)),2),14),31)
0.0010708 (1,(((((10,(35,4)),((((11,18),((((((13,16),36),9),33),((((((((20,23),25),(26,27)),28),24),(21,22)),29),5)),17)),(6,7)),((((12,(15,30)),32),19),3))),(34,8)),2),14),31)
0.0010332 (1,((((((10,35),4),(((((11,18),(((((13,16),9),36),((((((((20,23),25),(26,27)),28),24),(21,22)),29),5)),(17,33))),6),((((12,(15,30)),32),19),3)),7)),(34,8)),2),14),31)
0.000990934 (1,((((((10,(35,4)),7),((((11,18),(((((13,16),9),36),((((((((20,23),25),(26,27)),28),24),(21,22)),29),5)),(17,33))),6),((((12,(15,30)),32),19),3))),(34,8)),2),14),31)
0.000949067 (1,((((10,(35,4)),((((((11,18),((((((13,16),9),33),36),((((((((20,23),25),(26,27)),28),24),(21,22)),29),5)),17)),6),7),((((12,(15,30)),32),19),3)),(34,8))),2),14),31)
